\select@language {spanish}
\contentsline {section}{\numberline {1}O algoritmo}{2}{section.1}
\contentsline {paragraph}{Fase 1: Difusi\IeC {\'o}n.}{4}{section*.2}
\contentsline {paragraph}{Fase 2: Ordenamento Local.}{4}{section*.3}
\contentsline {paragraph}{Fase 3: Ordenamento Global.}{4}{section*.4}
\contentsline {section}{\numberline {2}Rendemento do programa}{8}{section.2}
\contentsline {section}{\numberline {3}Conclusi\IeC {\'o}ns}{11}{section.3}
