\relax 
\providecommand\hyper@newdestlabel[2]{}
\catcode`"\active
\catcode`<\active
\catcode`>\active
\@nameuse{es@quoting}
\providecommand\HyperFirstAtBeginDocument{\AtBeginDocument}
\HyperFirstAtBeginDocument{\ifx\hyper@anchor\@undefined
\global\let\oldcontentsline\contentsline
\gdef\contentsline#1#2#3#4{\oldcontentsline{#1}{#2}{#3}}
\global\let\oldnewlabel\newlabel
\gdef\newlabel#1#2{\newlabelxx{#1}#2}
\gdef\newlabelxx#1#2#3#4#5#6{\oldnewlabel{#1}{{#2}{#3}}}
\AtEndDocument{\ifx\hyper@anchor\@undefined
\let\contentsline\oldcontentsline
\let\newlabel\oldnewlabel
\fi}
\fi}
\global\let\hyper@last\relax 
\gdef\HyperFirstAtBeginDocument#1{#1}
\providecommand\HyField@AuxAddToFields[1]{}
\providecommand\HyField@AuxAddToCoFields[2]{}
\select@language{spanish}
\@writefile{toc}{\select@language{spanish}}
\@writefile{lof}{\select@language{spanish}}
\@writefile{lot}{\select@language{spanish}}
\@writefile{toc}{\contentsline {section}{\numberline {1}O algoritmo}{2}{section.1}}
\newlabel{list:combsort}{{1}{2}{Algoritmo secuencial}{lstlisting.1}{}}
\@writefile{lol}{\contentsline {lstlisting}{\numberline {1}Algoritmo secuencial}{2}{lstlisting.1}}
\newlabel{list:mpi1}{{2}{3}{Parelización parte MPI}{lstlisting.2}{}}
\@writefile{lol}{\contentsline {lstlisting}{\numberline {2}Parelizaci\IeC {\'o}n parte MPI}{3}{lstlisting.2}}
\@writefile{toc}{\contentsline {paragraph}{Fase 1: Difusi\IeC {\'o}n.}{4}{section*.2}}
\@writefile{toc}{\contentsline {paragraph}{Fase 2: Ordenamento Local.}{4}{section*.3}}
\@writefile{toc}{\contentsline {paragraph}{Fase 3: Ordenamento Global.}{4}{section*.4}}
\newlabel{list:mpi2}{{3}{4}{Procedementos para insertar datos no montículo}{lstlisting.3}{}}
\@writefile{lol}{\contentsline {lstlisting}{\numberline {3}Procedementos para insertar datos no mont\IeC {\'\i }culo.}{4}{lstlisting.3}}
\newlabel{list:mpi3}{{4}{5}{Procedemento para enviar datos ao root}{lstlisting.4}{}}
\@writefile{lol}{\contentsline {lstlisting}{\numberline {4}Procedemento para enviar datos ao root.}{5}{lstlisting.4}}
\newlabel{list:omp1}{{5}{6}{Paralelización parte OpenMP}{lstlisting.5}{}}
\@writefile{lol}{\contentsline {lstlisting}{\numberline {5}Paralelizaci\IeC {\'o}n parte OpenMP.}{6}{lstlisting.5}}
\@writefile{toc}{\contentsline {section}{\numberline {2}Rendemento do programa}{8}{section.2}}
\@writefile{lot}{\contentsline {table}{\numberline {1}{\ignorespaces T\IeC {\'a}boa de tempos con diferentes configuraci\IeC {\'o}ns.\relax }}{8}{table.caption.5}}
\providecommand*\caption@xref[2]{\@setref\relax\@undefined{#1}}
\newlabel{tab:temp1}{{1}{8}{Táboa de tempos con diferentes configuracións.\relax }{table.caption.5}{}}
\@writefile{lof}{\contentsline {figure}{\numberline {1}{\ignorespaces Gr\IeC {\'a}fica de tempos con diferentes configuraci\IeC {\'o}ns de f\IeC {\'\i }os, procesadores e valores de chunk.\relax }}{9}{figure.caption.6}}
\newlabel{fig:tempchunk}{{1}{9}{Gráfica de tempos con diferentes configuracións de fíos, procesadores e valores de chunk.\relax }{figure.caption.6}{}}
\@writefile{lof}{\contentsline {figure}{\numberline {2}{\ignorespaces Gr\IeC {\'a}fica de tempos con diferentes configuraci\IeC {\'o}ns de f\IeC {\'\i }os, procesadores e valores de chunk.\relax }}{9}{figure.caption.7}}
\newlabel{fig:tempproc1}{{2}{9}{Gráfica de tempos con diferentes configuracións de fíos, procesadores e valores de chunk.\relax }{figure.caption.7}{}}
\@writefile{toc}{\contentsline {section}{\numberline {3}Conclusi\IeC {\'o}ns}{11}{section.3}}
